Analysis & Synthesis report for v1495usr_demo
Wed Jul 15 16:45:58 2015
Quartus II Version 10.1 Build 197 01/19/2011 Service Pack 1 SJ Web Edition


---------------------
; Table of Contents ;
---------------------
  1. Legal Notice
  2. Analysis & Synthesis Summary
  3. Analysis & Synthesis Settings
  4. Parallel Compilation
  5. Analysis & Synthesis Source Files Read
  6. Analysis & Synthesis Resource Usage Summary
  7. Analysis & Synthesis Resource Utilization by Entity
  8. Registers Removed During Synthesis
  9. General Register Statistics
 10. Multiplexer Restructuring Statistics (Restructuring Performed)
 11. Elapsed Time Per Partition
 12. Analysis & Synthesis Messages



----------------
; Legal Notice ;
----------------
Copyright (C) 1991-2011 Altera Corporation
Your use of Altera Corporation's design tools, logic functions 
and other software and tools, and its AMPP partner logic 
functions, and any output files from any of the foregoing 
(including device programming or simulation files), and any 
associated documentation or information are expressly subject 
to the terms and conditions of the Altera Program License 
Subscription Agreement, Altera MegaCore Function License 
Agreement, or other applicable license agreement, including, 
without limitation, that your use is for the sole purpose of 
programming logic devices manufactured by Altera and sold by 
Altera or its authorized distributors.  Please refer to the 
applicable agreement for further details.



+-----------------------------------------------------------------------------+
; Analysis & Synthesis Summary                                                ;
+-----------------------------+-----------------------------------------------+
; Analysis & Synthesis Status ; Successful - Wed Jul 15 16:45:58 2015         ;
; Quartus II Version          ; 10.1 Build 197 01/19/2011 SP 1 SJ Web Edition ;
; Revision Name               ; v1495usr_demo                                 ;
; Top-level Entity Name       ; v1495usr                                      ;
; Family                      ; Cyclone                                       ;
; Total logic elements        ; 135                                           ;
; Total pins                  ; 275                                           ;
; Total virtual pins          ; 0                                             ;
; Total memory bits           ; 0                                             ;
; Total PLLs                  ; 0                                             ;
+-----------------------------+-----------------------------------------------+


+----------------------------------------------------------------------------------------------------------------------+
; Analysis & Synthesis Settings                                                                                        ;
+----------------------------------------------------------------------------+--------------------+--------------------+
; Option                                                                     ; Setting            ; Default Value      ;
+----------------------------------------------------------------------------+--------------------+--------------------+
; Device                                                                     ; EP1C20F400C6       ;                    ;
; Top-level entity name                                                      ; v1495usr           ; v1495usr_demo      ;
; Family name                                                                ; Cyclone            ; Cyclone IV GX      ;
; Use smart compilation                                                      ; Off                ; Off                ;
; Enable parallel Assembler and TimeQuest Timing Analyzer during compilation ; On                 ; On                 ;
; Enable compact report table                                                ; Off                ; Off                ;
; Restructure Multiplexers                                                   ; Auto               ; Auto               ;
; Create Debugging Nodes for IP Cores                                        ; Off                ; Off                ;
; Preserve fewer node names                                                  ; On                 ; On                 ;
; Disable OpenCore Plus hardware evaluation                                  ; Off                ; Off                ;
; Verilog Version                                                            ; Verilog_2001       ; Verilog_2001       ;
; VHDL Version                                                               ; VHDL_1993          ; VHDL_1993          ;
; State Machine Processing                                                   ; Auto               ; Auto               ;
; Safe State Machine                                                         ; Off                ; Off                ;
; Extract Verilog State Machines                                             ; On                 ; On                 ;
; Extract VHDL State Machines                                                ; On                 ; On                 ;
; Ignore Verilog initial constructs                                          ; Off                ; Off                ;
; Iteration limit for constant Verilog loops                                 ; 5000               ; 5000               ;
; Iteration limit for non-constant Verilog loops                             ; 250                ; 250                ;
; Add Pass-Through Logic to Inferred RAMs                                    ; On                 ; On                 ;
; Parallel Synthesis                                                         ; Off                ; Off                ;
; NOT Gate Push-Back                                                         ; On                 ; On                 ;
; Power-Up Don't Care                                                        ; On                 ; On                 ;
; Remove Redundant Logic Cells                                               ; Off                ; Off                ;
; Remove Duplicate Registers                                                 ; On                 ; On                 ;
; Ignore CARRY Buffers                                                       ; Off                ; Off                ;
; Ignore CASCADE Buffers                                                     ; Off                ; Off                ;
; Ignore GLOBAL Buffers                                                      ; Off                ; Off                ;
; Ignore ROW GLOBAL Buffers                                                  ; Off                ; Off                ;
; Ignore LCELL Buffers                                                       ; Off                ; Off                ;
; Ignore SOFT Buffers                                                        ; On                 ; On                 ;
; Limit AHDL Integers to 32 Bits                                             ; Off                ; Off                ;
; Optimization Technique                                                     ; Balanced           ; Balanced           ;
; Carry Chain Length                                                         ; 70                 ; 70                 ;
; Auto Carry Chains                                                          ; On                 ; On                 ;
; Auto Open-Drain Pins                                                       ; On                 ; On                 ;
; Perform WYSIWYG Primitive Resynthesis                                      ; Off                ; Off                ;
; Auto ROM Replacement                                                       ; On                 ; On                 ;
; Auto RAM Replacement                                                       ; On                 ; On                 ;
; Auto Shift Register Replacement                                            ; Auto               ; Auto               ;
; Auto Clock Enable Replacement                                              ; On                 ; On                 ;
; Strict RAM Replacement                                                     ; Off                ; Off                ;
; Allow Synchronous Control Signals                                          ; On                 ; On                 ;
; Force Use of Synchronous Clear Signals                                     ; Off                ; Off                ;
; Auto RAM Block Balancing                                                   ; On                 ; On                 ;
; Auto RAM to Logic Cell Conversion                                          ; Off                ; Off                ;
; Auto Resource Sharing                                                      ; Off                ; Off                ;
; Allow Any RAM Size For Recognition                                         ; Off                ; Off                ;
; Allow Any ROM Size For Recognition                                         ; Off                ; Off                ;
; Allow Any Shift Register Size For Recognition                              ; Off                ; Off                ;
; Use LogicLock Constraints during Resource Balancing                        ; On                 ; On                 ;
; Ignore translate_off and synthesis_off directives                          ; Off                ; Off                ;
; Report Parameter Settings                                                  ; On                 ; On                 ;
; Report Source Assignments                                                  ; On                 ; On                 ;
; Report Connectivity Checks                                                 ; On                 ; On                 ;
; Ignore Maximum Fan-Out Assignments                                         ; Off                ; Off                ;
; Synchronization Register Chain Length                                      ; 3                  ; 3                  ;
; PowerPlay Power Optimization                                               ; Normal compilation ; Normal compilation ;
; HDL message level                                                          ; Level2             ; Level2             ;
; Suppress Register Optimization Related Messages                            ; Off                ; Off                ;
; Number of Removed Registers Reported in Synthesis Report                   ; 5000               ; 5000               ;
; Number of Inverted Registers Reported in Synthesis Report                  ; 100                ; 100                ;
; Clock MUX Protection                                                       ; On                 ; On                 ;
; Block Design Naming                                                        ; Auto               ; Auto               ;
; Synthesis Effort                                                           ; Auto               ; Auto               ;
; Shift Register Replacement - Allow Asynchronous Clear Signal               ; On                 ; On                 ;
; Analysis & Synthesis Message Level                                         ; Medium             ; Medium             ;
; Disable Register Merging Across Hierarchies                                ; Auto               ; Auto               ;
; Resource Aware Inference For Block RAM                                     ; On                 ; On                 ;
; Synthesis Seed                                                             ; 1                  ; 1                  ;
+----------------------------------------------------------------------------+--------------------+--------------------+


Parallel compilation was disabled, but you have multiple processors available. Enable parallel compilation to reduce compilation time.
+-------------------------------------+
; Parallel Compilation                ;
+----------------------------+--------+
; Processors                 ; Number ;
+----------------------------+--------+
; Number detected on machine ; 4      ;
; Maximum allowed            ; 1      ;
+----------------------------+--------+


+----------------------------------------------------------------------------------------------------------------------------------------------------------------------------------------------+
; Analysis & Synthesis Source Files Read                                                                                                                                                       ;
+---------------------------------------------+-----------------+------------------------------------+-----------------------------------------------------------------------------------------+
; File Name with User-Entered Path            ; Used in Netlist ; File Type                          ; File Name with Absolute Path                                                            ;
+---------------------------------------------+-----------------+------------------------------------+-----------------------------------------------------------------------------------------+
; ../SRC/v1495usr_busy/LEDstatus.vhd          ; yes             ; User VHDL File                     ; /home/buetikofer/Documents/XENON/V1495/v1495_2/SRC/v1495usr_busy/LEDstatus.vhd          ;
; ../SRC/v1495usr_busy/v1495usr.vhd           ; yes             ; User VHDL File                     ; /home/buetikofer/Documents/XENON/V1495/v1495_2/SRC/v1495usr_busy/v1495usr.vhd           ;
; ../SRC/v1495usr_busy/v1495usr_pkg.vhd       ; yes             ; User VHDL File                     ; /home/buetikofer/Documents/XENON/V1495/v1495_2/SRC/v1495usr_busy/v1495usr_pkg.vhd       ;
; ../SRC/v1495usr_busy/v1495usr_hal.vqm       ; yes             ; User Verilog Quartus Mapping File  ; /home/buetikofer/Documents/XENON/V1495/v1495_2/SRC/v1495usr_busy/v1495usr_hal.vqm       ;
; ../SRC/v1495usr_busy/tristate_if_rtl.vhd    ; yes             ; User VHDL File                     ; /home/buetikofer/Documents/XENON/V1495/v1495_2/SRC/v1495usr_busy/tristate_if_rtl.vhd    ;
; ../SRC/v1495usr_busy/spare_if_rtl.vhd       ; yes             ; User VHDL File                     ; /home/buetikofer/Documents/XENON/V1495/v1495_2/SRC/v1495usr_busy/spare_if_rtl.vhd       ;
; ../SRC/v1495usr_busy/MainLogicUser.vhd      ; yes             ; User VHDL File                     ; /home/buetikofer/Documents/XENON/V1495/v1495_2/SRC/v1495usr_busy/MainLogicUser.vhd      ;
; ../SRC/v1495usr_busy/BusyLogicComponent.vhd ; yes             ; User VHDL File                     ; /home/buetikofer/Documents/XENON/V1495/v1495_2/SRC/v1495usr_busy/BusyLogicComponent.vhd ;
; ../SRC/v1495usr_busy/EncodingComponent.vhd  ; yes             ; User VHDL File                     ; /home/buetikofer/Documents/XENON/V1495/v1495_2/SRC/v1495usr_busy/EncodingComponent.vhd  ;
+---------------------------------------------+-----------------+------------------------------------+-----------------------------------------------------------------------------------------+


+-----------------------------------------------------+
; Analysis & Synthesis Resource Usage Summary         ;
+---------------------------------------------+-------+
; Resource                                    ; Usage ;
+---------------------------------------------+-------+
; Total logic elements                        ; 135   ;
;     -- Combinational with no register       ; 56    ;
;     -- Register only                        ; 5     ;
;     -- Combinational with a register        ; 74    ;
;                                             ;       ;
; Logic element usage by number of LUT inputs ;       ;
;     -- 4 input functions                    ; 39    ;
;     -- 3 input functions                    ; 18    ;
;     -- 2 input functions                    ; 68    ;
;     -- 1 input functions                    ; 5     ;
;     -- 0 input functions                    ; 0     ;
;                                             ;       ;
; Logic elements by mode                      ;       ;
;     -- normal mode                          ; 85    ;
;     -- arithmetic mode                      ; 50    ;
;     -- qfbk mode                            ; 0     ;
;     -- register cascade mode                ; 0     ;
;     -- synchronous clear/load mode          ; 32    ;
;     -- asynchronous clear/load mode         ; 8     ;
;                                             ;       ;
; Total registers                             ; 79    ;
; Total logic cells in carry chains           ; 54    ;
; I/O pins                                    ; 275   ;
; Maximum fan-out node                        ; LCLK  ;
; Maximum fan-out                             ; 79    ;
; Total fan-out                               ; 618   ;
; Average fan-out                             ; 1.51  ;
+---------------------------------------------+-------+


+---------------------------------------------------------------------------------------------------------------------------------------------------------------------------------------------------------------------------------------------------------------------------+
; Analysis & Synthesis Resource Utilization by Entity                                                                                                                                                                                                                       ;
+-----------------------------------------+-------------+--------------+-------------+------+--------------+--------------+-------------------+------------------+-----------------+------------+------------------------------------------------------------+--------------+
; Compilation Hierarchy Node              ; Logic Cells ; LC Registers ; Memory Bits ; Pins ; Virtual Pins ; LUT-Only LCs ; Register-Only LCs ; LUT/Register LCs ; Carry Chain LCs ; Packed LCs ; Full Hierarchy Name                                        ; Library Name ;
+-----------------------------------------+-------------+--------------+-------------+------+--------------+--------------+-------------------+------------------+-----------------+------------+------------------------------------------------------------+--------------+
; |v1495usr                               ; 135 (0)     ; 79           ; 0           ; 275  ; 0            ; 56 (0)       ; 5 (0)             ; 74 (0)           ; 54 (0)          ; 0 (0)      ; |v1495usr                                                  ;              ;
;    |MainLogicUser:I0|                   ; 73 (4)      ; 46           ; 0           ; 0    ; 0            ; 27 (0)       ; 1 (0)             ; 45 (4)           ; 32 (0)          ; 0 (0)      ; |v1495usr|MainLogicUser:I0                                 ;              ;
;       |BusyLogicComponent:busy_logic|   ; 11 (11)     ; 1            ; 0           ; 0    ; 0            ; 10 (10)      ; 0 (0)             ; 1 (1)            ; 0 (0)           ; 0 (0)      ; |v1495usr|MainLogicUser:I0|BusyLogicComponent:busy_logic   ;              ;
;       |EncodingComponent:BUSY_encoding| ; 5 (5)       ; 4            ; 0           ; 0    ; 0            ; 1 (1)        ; 1 (1)             ; 3 (3)            ; 0 (0)           ; 0 (0)      ; |v1495usr|MainLogicUser:I0|EncodingComponent:BUSY_encoding ;              ;
;       |EncodingComponent:HEV_encoding|  ; 5 (5)       ; 4            ; 0           ; 0    ; 0            ; 1 (1)        ; 0 (0)             ; 4 (4)            ; 0 (0)           ; 0 (0)      ; |v1495usr|MainLogicUser:I0|EncodingComponent:HEV_encoding  ;              ;
;       |LEDstatus:check_LED_status|      ; 48 (48)     ; 33           ; 0           ; 0    ; 0            ; 15 (15)      ; 0 (0)             ; 33 (33)          ; 32 (32)         ; 0 (0)      ; |v1495usr|MainLogicUser:I0|LEDstatus:check_LED_status      ;              ;
;    |v1495usr_hal:I1|                    ; 62 (0)      ; 33           ; 0           ; 0    ; 0            ; 29 (0)       ; 4 (0)             ; 29 (0)           ; 22 (0)          ; 0 (0)      ; |v1495usr|v1495usr_hal:I1                                  ;              ;
;       |a395x_if:I2|                     ; 2 (2)       ; 0            ; 0           ; 0    ; 0            ; 2 (2)        ; 0 (0)             ; 0 (0)            ; 0 (0)           ; 0 (0)      ; |v1495usr|v1495usr_hal:I1|a395x_if:I2                      ;              ;
;       |a395x_if_1:I3|                   ; 2 (2)       ; 0            ; 0           ; 0    ; 0            ; 2 (2)        ; 0 (0)             ; 0 (0)            ; 0 (0)           ; 0 (0)      ; |v1495usr|v1495usr_hal:I1|a395x_if_1:I3                    ;              ;
;       |a395x_if_2:I4|                   ; 10 (10)     ; 0            ; 0           ; 0    ; 0            ; 10 (10)      ; 0 (0)             ; 0 (0)            ; 0 (0)           ; 0 (0)      ; |v1495usr|v1495usr_hal:I1|a395x_if_2:I4                    ;              ;
;       |led_if:I8|                       ; 40 (40)     ; 29           ; 0           ; 0    ; 0            ; 11 (11)      ; 4 (4)             ; 25 (25)          ; 22 (22)         ; 0 (0)      ; |v1495usr|v1495usr_hal:I1|led_if:I8                        ;              ;
;       |localbusif:I1|                   ; 8 (8)       ; 4            ; 0           ; 0    ; 0            ; 4 (4)        ; 0 (0)             ; 4 (4)            ; 0 (0)           ; 0 (0)      ; |v1495usr|v1495usr_hal:I1|localbusif:I1                    ;              ;
+-----------------------------------------+-------------+--------------+-------------+------+--------------+--------------+-------------------+------------------+-----------------+------------+------------------------------------------------------------+--------------+
Note: For table entries with two numbers listed, the numbers in parentheses indicate the number of resources of the given type used by the specific entity alone. The numbers listed outside of parentheses indicate the total resources of the given type used by the specific entity and all of its sub-entities in the hierarchy.


+------------------------------------------------------------------------------------------------------+
; Registers Removed During Synthesis                                                                   ;
+-------------------------------------------------------------+----------------------------------------+
; Register name                                               ; Reason for Removal                     ;
+-------------------------------------------------------------+----------------------------------------+
; v1495usr_hal:I1|localbusif:I1|ADDR_s_0__Z                   ; Lost fanout                            ;
; v1495usr_hal:I1|localbusif:I1|ADDR_s_1__Z                   ; Lost fanout                            ;
; v1495usr_hal:I1|localbusif:I1|ADDR_s_2__Z                   ; Lost fanout                            ;
; v1495usr_hal:I1|localbusif:I1|ADDR_s_3__Z                   ; Lost fanout                            ;
; v1495usr_hal:I1|localbusif:I1|ADDR_s_4__Z                   ; Lost fanout                            ;
; v1495usr_hal:I1|localbusif:I1|ADDR_s_5__Z                   ; Lost fanout                            ;
; v1495usr_hal:I1|localbusif:I1|ADDR_s_6__Z                   ; Lost fanout                            ;
; v1495usr_hal:I1|localbusif:I1|ADDR_s_7__Z                   ; Lost fanout                            ;
; v1495usr_hal:I1|localbusif:I1|ADDR_s_8__Z                   ; Lost fanout                            ;
; v1495usr_hal:I1|localbusif:I1|ADDR_s_9__Z                   ; Lost fanout                            ;
; v1495usr_hal:I1|localbusif:I1|ADDR_s_10__Z                  ; Lost fanout                            ;
; v1495usr_hal:I1|localbusif:I1|ADDR_s_11__Z                  ; Lost fanout                            ;
; v1495usr_hal:I1|localbusif:I1|ADDR_s_12__Z                  ; Lost fanout                            ;
; v1495usr_hal:I1|localbusif:I1|ADDR_s_13__Z                  ; Lost fanout                            ;
; v1495usr_hal:I1|localbusif:I1|ADDR_s_14__Z                  ; Lost fanout                            ;
; v1495usr_hal:I1|localbusif:I1|ADDR_s_15__Z                  ; Lost fanout                            ;
; MainLogicUser:I0|EncodingComponent:BUSY_encoding|counter[2] ; Stuck at GND due to stuck port data_in ;
; MainLogicUser:I0|EncodingComponent:HEV_encoding|counter[2]  ; Stuck at GND due to stuck port data_in ;
; Total Number of Removed Registers = 18                      ;                                        ;
+-------------------------------------------------------------+----------------------------------------+


+------------------------------------------------------+
; General Register Statistics                          ;
+----------------------------------------------+-------+
; Statistic                                    ; Value ;
+----------------------------------------------+-------+
; Total registers                              ; 79    ;
; Number of registers using Synchronous Clear  ; 32    ;
; Number of registers using Synchronous Load   ; 0     ;
; Number of registers using Asynchronous Clear ; 8     ;
; Number of registers using Asynchronous Load  ; 4     ;
; Number of registers using Clock Enable       ; 16    ;
; Number of registers using Preset             ; 0     ;
+----------------------------------------------+-------+


+-------------------------------------------------------------------------------------------------------------------------------------------------------------------------------------+
; Multiplexer Restructuring Statistics (Restructuring Performed)                                                                                                                      ;
+--------------------+-----------+---------------+----------------------+------------------------+------------+-----------------------------------------------------------------------+
; Multiplexer Inputs ; Bus Width ; Baseline Area ; Area if Restructured ; Saving if Restructured ; Registered ; Example Multiplexer Output                                            ;
+--------------------+-----------+---------------+----------------------+------------------------+------------+-----------------------------------------------------------------------+
; 5:1                ; 2 bits    ; 6 LEs         ; 4 LEs                ; 2 LEs                  ; Yes        ; |v1495usr|MainLogicUser:I0|EncodingComponent:HEV_encoding|counter[0]  ;
; 5:1                ; 2 bits    ; 6 LEs         ; 4 LEs                ; 2 LEs                  ; Yes        ; |v1495usr|MainLogicUser:I0|EncodingComponent:BUSY_encoding|counter[1] ;
+--------------------+-----------+---------------+----------------------+------------------------+------------+-----------------------------------------------------------------------+


+-------------------------------+
; Elapsed Time Per Partition    ;
+----------------+--------------+
; Partition Name ; Elapsed Time ;
+----------------+--------------+
; Top            ; 00:00:00     ;
+----------------+--------------+


+-------------------------------+
; Analysis & Synthesis Messages ;
+-------------------------------+
Info: *******************************************************************
Info: Running Quartus II Analysis & Synthesis
    Info: Version 10.1 Build 197 01/19/2011 Service Pack 1 SJ Web Edition
    Info: Processing started: Wed Jul 15 16:45:56 2015
Info: Command: quartus_map --read_settings_files=on --write_settings_files=off v1495usr_demo -c v1495usr_demo
Info: Found 2 design units, including 1 entities, in source file /home/buetikofer/Documents/XENON/V1495/v1495_2/SRC/v1495usr_busy/LEDstatus.vhd
    Info: Found design unit 1: LEDstatus-rtl
    Info: Found entity 1: LEDstatus
Info: Found 2 design units, including 1 entities, in source file /home/buetikofer/Documents/XENON/V1495/v1495_2/SRC/v1495usr_busy/v1495usr.vhd
    Info: Found design unit 1: v1495usr-struct
    Info: Found entity 1: v1495usr
Info: Found 1 design units, including 0 entities, in source file /home/buetikofer/Documents/XENON/V1495/v1495_2/SRC/v1495usr_busy/v1495usr_pkg.vhd
    Info: Found design unit 1: v1495pkg
Info: Found 7 design units, including 7 entities, in source file /home/buetikofer/Documents/XENON/V1495/v1495_2/SRC/v1495usr_busy/v1495usr_hal.vqm
    Info: Found entity 1: a395x_if
    Info: Found entity 2: a395x_if_1
    Info: Found entity 3: a395x_if_2
    Info: Found entity 4: led_if
    Info: Found entity 5: localbusif
    Info: Found entity 6: pdl_if
    Info: Found entity 7: v1495usr_hal
Info: Found 2 design units, including 1 entities, in source file /home/buetikofer/Documents/XENON/V1495/v1495_2/SRC/v1495usr_busy/tristate_if_rtl.vhd
    Info: Found design unit 1: tristate_if-rtl
    Info: Found entity 1: tristate_if
Info: Found 2 design units, including 1 entities, in source file /home/buetikofer/Documents/XENON/V1495/v1495_2/SRC/v1495usr_busy/spare_if_rtl.vhd
    Info: Found design unit 1: spare_if-rtl
    Info: Found entity 1: spare_if
Info: Found 2 design units, including 1 entities, in source file /home/buetikofer/Documents/XENON/V1495/v1495_2/SRC/v1495usr_busy/MainLogicUser.vhd
    Info: Found design unit 1: MainLogicUser-rtl
    Info: Found entity 1: MainLogicUser
Info: Found 2 design units, including 1 entities, in source file /home/buetikofer/Documents/XENON/V1495/v1495_2/SRC/v1495usr_busy/BusyLogicComponent.vhd
    Info: Found design unit 1: BusyLogicComponent-rtl
    Info: Found entity 1: BusyLogicComponent
Info: Found 2 design units, including 1 entities, in source file /home/buetikofer/Documents/XENON/V1495/v1495_2/SRC/v1495usr_busy/EncodingComponent.vhd
    Info: Found design unit 1: EncodingComponent-rtl
    Info: Found entity 1: EncodingComponent
Info: Elaborating entity "v1495usr" for the top level hierarchy
Info: Elaborating entity "MainLogicUser" for hierarchy "MainLogicUser:I0"
Warning (10541): VHDL Signal Declaration warning at MainLogicUser.vhd(61): used implicit default value for signal "REG_DOUT" because signal was never assigned a value or an explicit default value. Use of implicit default value may introduce unintended design optimizations.
Warning (10541): VHDL Signal Declaration warning at MainLogicUser.vhd(69): used implicit default value for signal "C_DOUT" because signal was never assigned a value or an explicit default value. Use of implicit default value may introduce unintended design optimizations.
Warning (10541): VHDL Signal Declaration warning at MainLogicUser.vhd(71): used implicit default value for signal "G_DIR" because signal was never assigned a value or an explicit default value. Use of implicit default value may introduce unintended design optimizations.
Warning (10541): VHDL Signal Declaration warning at MainLogicUser.vhd(72): used implicit default value for signal "G_DOUT" because signal was never assigned a value or an explicit default value. Use of implicit default value may introduce unintended design optimizations.
Warning (10541): VHDL Signal Declaration warning at MainLogicUser.vhd(94): used implicit default value for signal "D_LEV" because signal was never assigned a value or an explicit default value. Use of implicit default value may introduce unintended design optimizations.
Warning (10541): VHDL Signal Declaration warning at MainLogicUser.vhd(95): used implicit default value for signal "D_DIR" because signal was never assigned a value or an explicit default value. Use of implicit default value may introduce unintended design optimizations.
Warning (10541): VHDL Signal Declaration warning at MainLogicUser.vhd(97): used implicit default value for signal "D_DOUT" because signal was never assigned a value or an explicit default value. Use of implicit default value may introduce unintended design optimizations.
Warning (10541): VHDL Signal Declaration warning at MainLogicUser.vhd(100): used implicit default value for signal "E_LEV" because signal was never assigned a value or an explicit default value. Use of implicit default value may introduce unintended design optimizations.
Warning (10541): VHDL Signal Declaration warning at MainLogicUser.vhd(101): used implicit default value for signal "E_DIR" because signal was never assigned a value or an explicit default value. Use of implicit default value may introduce unintended design optimizations.
Warning (10541): VHDL Signal Declaration warning at MainLogicUser.vhd(103): used implicit default value for signal "E_DOUT" because signal was never assigned a value or an explicit default value. Use of implicit default value may introduce unintended design optimizations.
Warning (10541): VHDL Signal Declaration warning at MainLogicUser.vhd(107): used implicit default value for signal "F_DIR" because signal was never assigned a value or an explicit default value. Use of implicit default value may introduce unintended design optimizations.
Warning (10541): VHDL Signal Declaration warning at MainLogicUser.vhd(116): used implicit default value for signal "PDL_WR" because signal was never assigned a value or an explicit default value. Use of implicit default value may introduce unintended design optimizations.
Warning (10541): VHDL Signal Declaration warning at MainLogicUser.vhd(117): used implicit default value for signal "PDL_SEL" because signal was never assigned a value or an explicit default value. Use of implicit default value may introduce unintended design optimizations.
Warning (10541): VHDL Signal Declaration warning at MainLogicUser.vhd(119): used implicit default value for signal "PDL_WRITE" because signal was never assigned a value or an explicit default value. Use of implicit default value may introduce unintended design optimizations.
Warning (10541): VHDL Signal Declaration warning at MainLogicUser.vhd(120): used implicit default value for signal "PDL_DIR" because signal was never assigned a value or an explicit default value. Use of implicit default value may introduce unintended design optimizations.
Warning (10541): VHDL Signal Declaration warning at MainLogicUser.vhd(126): used implicit default value for signal "PDL0_IN" because signal was never assigned a value or an explicit default value. Use of implicit default value may introduce unintended design optimizations.
Warning (10541): VHDL Signal Declaration warning at MainLogicUser.vhd(127): used implicit default value for signal "PDL1_IN" because signal was never assigned a value or an explicit default value. Use of implicit default value may introduce unintended design optimizations.
Warning (10541): VHDL Signal Declaration warning at MainLogicUser.vhd(128): used implicit default value for signal "DLO0_GATE" because signal was never assigned a value or an explicit default value. Use of implicit default value may introduce unintended design optimizations.
Warning (10541): VHDL Signal Declaration warning at MainLogicUser.vhd(129): used implicit default value for signal "DLO1_GATE" because signal was never assigned a value or an explicit default value. Use of implicit default value may introduce unintended design optimizations.
Warning (10873): Using initial value X (don't care) for net "F_DOUT[31..5]" at MainLogicUser.vhd(109)
Info: Elaborating entity "BusyLogicComponent" for hierarchy "MainLogicUser:I0|BusyLogicComponent:busy_logic"
Info: Elaborating entity "EncodingComponent" for hierarchy "MainLogicUser:I0|EncodingComponent:HEV_encoding"
Info: Elaborating entity "LEDstatus" for hierarchy "MainLogicUser:I0|LEDstatus:check_LED_status"
Info: Elaborating entity "spare_if" for hierarchy "spare_if:I2"
Info: Elaborating entity "tristate_if" for hierarchy "tristate_if:I3"
Info: Elaborating entity "v1495usr_hal" for hierarchy "v1495usr_hal:I1"
Info: Elaborating entity "a395x_if" for hierarchy "v1495usr_hal:I1|a395x_if:I2"
Info: Elaborating entity "a395x_if_1" for hierarchy "v1495usr_hal:I1|a395x_if_1:I3"
Info: Elaborating entity "a395x_if_2" for hierarchy "v1495usr_hal:I1|a395x_if_2:I4"
Info: Elaborating entity "led_if" for hierarchy "v1495usr_hal:I1|led_if:I8"
Info: Elaborating entity "localbusif" for hierarchy "v1495usr_hal:I1|localbusif:I1"
Info: Elaborating entity "pdl_if" for hierarchy "v1495usr_hal:I1|pdl_if:I5"
Warning: Output pins are stuck at VCC or GND
    Warning (13410): Pin "C[0]" is stuck at GND
    Warning (13410): Pin "C[1]" is stuck at GND
    Warning (13410): Pin "C[2]" is stuck at GND
    Warning (13410): Pin "C[3]" is stuck at GND
    Warning (13410): Pin "C[4]" is stuck at GND
    Warning (13410): Pin "C[5]" is stuck at GND
    Warning (13410): Pin "C[6]" is stuck at GND
    Warning (13410): Pin "C[7]" is stuck at GND
    Warning (13410): Pin "C[8]" is stuck at GND
    Warning (13410): Pin "C[9]" is stuck at GND
    Warning (13410): Pin "C[10]" is stuck at GND
    Warning (13410): Pin "C[11]" is stuck at GND
    Warning (13410): Pin "C[12]" is stuck at GND
    Warning (13410): Pin "C[13]" is stuck at GND
    Warning (13410): Pin "C[14]" is stuck at GND
    Warning (13410): Pin "C[15]" is stuck at GND
    Warning (13410): Pin "C[16]" is stuck at GND
    Warning (13410): Pin "C[17]" is stuck at GND
    Warning (13410): Pin "C[18]" is stuck at GND
    Warning (13410): Pin "C[19]" is stuck at GND
    Warning (13410): Pin "C[20]" is stuck at GND
    Warning (13410): Pin "C[21]" is stuck at GND
    Warning (13410): Pin "C[22]" is stuck at GND
    Warning (13410): Pin "C[23]" is stuck at GND
    Warning (13410): Pin "C[24]" is stuck at GND
    Warning (13410): Pin "C[25]" is stuck at GND
    Warning (13410): Pin "C[26]" is stuck at GND
    Warning (13410): Pin "C[27]" is stuck at GND
    Warning (13410): Pin "C[28]" is stuck at GND
    Warning (13410): Pin "C[29]" is stuck at GND
    Warning (13410): Pin "C[30]" is stuck at GND
    Warning (13410): Pin "C[31]" is stuck at GND
    Warning (13410): Pin "DIRDDLY" is stuck at GND
    Warning (13410): Pin "GOUT[0]" is stuck at GND
    Warning (13410): Pin "GOUT[1]" is stuck at GND
    Warning (13410): Pin "SELD" is stuck at VCC
    Warning (13410): Pin "SELE" is stuck at VCC
    Warning (13410): Pin "SELF" is stuck at GND
    Warning (13410): Pin "SELG" is stuck at GND
    Warning (13410): Pin "START[0]" is stuck at GND
    Warning (13410): Pin "START[1]" is stuck at GND
    Warning (13410): Pin "WR_DLY0" is stuck at GND
    Warning (13410): Pin "WR_DLY1" is stuck at GND
    Warning (13410): Pin "nINT" is stuck at VCC
    Warning (13410): Pin "nOED" is stuck at GND
    Warning (13410): Pin "nOEDDLY0" is stuck at GND
    Warning (13410): Pin "nOEDDLY1" is stuck at VCC
    Warning (13410): Pin "nOEE" is stuck at GND
    Warning (13410): Pin "nOEF" is stuck at GND
    Warning (13410): Pin "nOEG" is stuck at GND
    Warning (13410): Pin "nSTART[2]" is stuck at VCC
    Warning (13410): Pin "nSTART[3]" is stuck at VCC
Info: 16 registers lost all their fanouts during netlist optimizations. The first 16 are displayed below.
    Info: Register "v1495usr_hal:I1|localbusif:I1|ADDR_s_0__Z" lost all its fanouts during netlist optimizations.
    Info: Register "v1495usr_hal:I1|localbusif:I1|ADDR_s_1__Z" lost all its fanouts during netlist optimizations.
    Info: Register "v1495usr_hal:I1|localbusif:I1|ADDR_s_2__Z" lost all its fanouts during netlist optimizations.
    Info: Register "v1495usr_hal:I1|localbusif:I1|ADDR_s_3__Z" lost all its fanouts during netlist optimizations.
    Info: Register "v1495usr_hal:I1|localbusif:I1|ADDR_s_4__Z" lost all its fanouts during netlist optimizations.
    Info: Register "v1495usr_hal:I1|localbusif:I1|ADDR_s_5__Z" lost all its fanouts during netlist optimizations.
    Info: Register "v1495usr_hal:I1|localbusif:I1|ADDR_s_6__Z" lost all its fanouts during netlist optimizations.
    Info: Register "v1495usr_hal:I1|localbusif:I1|ADDR_s_7__Z" lost all its fanouts during netlist optimizations.
    Info: Register "v1495usr_hal:I1|localbusif:I1|ADDR_s_8__Z" lost all its fanouts during netlist optimizations.
    Info: Register "v1495usr_hal:I1|localbusif:I1|ADDR_s_9__Z" lost all its fanouts during netlist optimizations.
    Info: Register "v1495usr_hal:I1|localbusif:I1|ADDR_s_10__Z" lost all its fanouts during netlist optimizations.
    Info: Register "v1495usr_hal:I1|localbusif:I1|ADDR_s_11__Z" lost all its fanouts during netlist optimizations.
    Info: Register "v1495usr_hal:I1|localbusif:I1|ADDR_s_12__Z" lost all its fanouts during netlist optimizations.
    Info: Register "v1495usr_hal:I1|localbusif:I1|ADDR_s_13__Z" lost all its fanouts during netlist optimizations.
    Info: Register "v1495usr_hal:I1|localbusif:I1|ADDR_s_14__Z" lost all its fanouts during netlist optimizations.
    Info: Register "v1495usr_hal:I1|localbusif:I1|ADDR_s_15__Z" lost all its fanouts during netlist optimizations.
Info: Generating hard_block partition "hard_block:auto_generated_inst"
Warning: Design contains 36 input pin(s) that do not drive logic
    Warning (15610): No output dependent on input pin "B[0]"
    Warning (15610): No output dependent on input pin "B[1]"
    Warning (15610): No output dependent on input pin "B[2]"
    Warning (15610): No output dependent on input pin "B[3]"
    Warning (15610): No output dependent on input pin "B[4]"
    Warning (15610): No output dependent on input pin "B[5]"
    Warning (15610): No output dependent on input pin "B[6]"
    Warning (15610): No output dependent on input pin "B[7]"
    Warning (15610): No output dependent on input pin "B[8]"
    Warning (15610): No output dependent on input pin "B[9]"
    Warning (15610): No output dependent on input pin "B[10]"
    Warning (15610): No output dependent on input pin "B[11]"
    Warning (15610): No output dependent on input pin "B[12]"
    Warning (15610): No output dependent on input pin "B[13]"
    Warning (15610): No output dependent on input pin "B[14]"
    Warning (15610): No output dependent on input pin "B[15]"
    Warning (15610): No output dependent on input pin "B[16]"
    Warning (15610): No output dependent on input pin "B[17]"
    Warning (15610): No output dependent on input pin "B[18]"
    Warning (15610): No output dependent on input pin "B[19]"
    Warning (15610): No output dependent on input pin "B[20]"
    Warning (15610): No output dependent on input pin "B[21]"
    Warning (15610): No output dependent on input pin "B[22]"
    Warning (15610): No output dependent on input pin "B[23]"
    Warning (15610): No output dependent on input pin "B[24]"
    Warning (15610): No output dependent on input pin "B[25]"
    Warning (15610): No output dependent on input pin "B[26]"
    Warning (15610): No output dependent on input pin "B[27]"
    Warning (15610): No output dependent on input pin "B[28]"
    Warning (15610): No output dependent on input pin "B[29]"
    Warning (15610): No output dependent on input pin "B[30]"
    Warning (15610): No output dependent on input pin "B[31]"
    Warning (15610): No output dependent on input pin "PULSE[0]"
    Warning (15610): No output dependent on input pin "PULSE[1]"
    Warning (15610): No output dependent on input pin "PULSE[2]"
    Warning (15610): No output dependent on input pin "PULSE[3]"
Info: Implemented 410 device resources after synthesis - the final resource count might be different
    Info: Implemented 84 input pins
    Info: Implemented 55 output pins
    Info: Implemented 136 bidirectional pins
    Info: Implemented 135 logic cells
Info: Quartus II Analysis & Synthesis was successful. 0 errors, 110 warnings
    Info: Peak virtual memory: 274 megabytes
    Info: Processing ended: Wed Jul 15 16:45:58 2015
    Info: Elapsed time: 00:00:02
    Info: Total CPU time (on all processors): 00:00:02


